<?xml version="1.0" encoding="UTF-8" standalone="no"?>
<svg
   xmlns:dc="http://purl.org/dc/elements/1.1/"
   xmlns:cc="http://creativecommons.org/ns#"
   xmlns:rdf="http://www.w3.org/1999/02/22-rdf-syntax-ns#"
   xmlns:svg="http://www.w3.org/2000/svg"
   xmlns="http://www.w3.org/2000/svg"
   width="4.3000002mm"
   height="4.3000002mm"
   viewBox="0 0 4.3000002 4.3000002"
   version="1.1"
   id="svg8">
  <defs
     id="defs2" />
  <metadata
     id="metadata5">
    <rdf:RDF>
      <cc:Work
         rdf:about="">
        <dc:format>image/svg+xml</dc:format>
        <dc:type
           rdf:resource="http://purl.org/dc/dcmitype/StillImage" />
        <dc:title></dc:title>
      </cc:Work>
    </rdf:RDF>
  </metadata>
  <g
     id="layer1"
     transform="translate(-40.578776,-40.696882)">
    <ellipse
       style="fill:none;fill-opacity:0;fill-rule:evenodd;stroke:#33d100;stroke-width:0.431939;stroke-linecap:round;stroke-linejoin:round"
       id="path833"
       cx="42.728851"
       cy="42.855309"
       rx="1.9006969"
       ry="1.9006971" />
  </g>
</svg>
